Homework9
…
# A tibble: 3 × 2
  col_name        col_unique                    
  <chr>           <chr>                         
1 Seasons         Winter, Spring, Summer, Autumn
2 Holiday         No Holiday, Holiday           
3 Functioning Day Yes, No                       

seoul_bike_data

# A tibble: 8,760 × 14
   Date       `Rented Bike Count`  Hour `Temperature(°C)` `Humidity(%)`
   <date>                   <dbl> <dbl>             <dbl>         <dbl>
 1 2017-12-01                 254     0              -5.2            37
 2 2017-12-01                 204     1              -5.5            38
 3 2017-12-01                 173     2              -6              39
 4 2017-12-01                 107     3              -6.2            40
 5 2017-12-01                  78     4              -6              36
 6 2017-12-01                 100     5              -6.4            37
 7 2017-12-01                 181     6              -6.6            35
 8 2017-12-01                 460     7              -7.4            38
 9 2017-12-01                 930     8              -7.6            37
10 2017-12-01                 490     9              -6.5            27
# ℹ 8,750 more rows
# ℹ 9 more variables: `Wind speed (m/s)` <dbl>, `Visibility (10m)` <dbl>,
#   `Dew point temperature(°C)` <dbl>, `Solar Radiation (MJ/m2)` <dbl>,
#   `Rainfall(mm)` <dbl>, `Snowfall (cm)` <dbl>, Seasons <chr>, Holiday <chr>,
#   `Functioning Day` <chr>

Since the Functioning Day variable is sometimes “No,” we can restrict to those days when it is “Yes.”

seoul_bike_data <- seoul_bike_data %>%
  filter(`Functioning Day` == "Yes")

seoul_bike_data

# A tibble: 8,465 × 14
   Date       `Rented Bike Count`  Hour `Temperature(°C)` `Humidity(%)`
   <date>                   <dbl> <dbl>             <dbl>         <dbl>
 1 2017-12-01                 254     0              -5.2            37
 2 2017-12-01                 204     1              -5.5            38
 3 2017-12-01                 173     2              -6              39
 4 2017-12-01                 107     3              -6.2            40
 5 2017-12-01                  78     4              -6              36
 6 2017-12-01                 100     5              -6.4            37
 7 2017-12-01                 181     6              -6.6            35
 8 2017-12-01                 460     7              -7.4            38
 9 2017-12-01                 930     8              -7.6            37
10 2017-12-01                 490     9              -6.5            27
# ℹ 8,455 more rows
# ℹ 9 more variables: `Wind speed (m/s)` <dbl>, `Visibility (10m)` <dbl>,
#   `Dew point temperature(°C)` <dbl>, `Solar Radiation (MJ/m2)` <dbl>,
#   `Rainfall(mm)` <dbl>, `Snowfall (cm)` <dbl>, Seasons <chr>, Holiday <chr>,
#   `Functioning Day` <chr>

Turn the character variables (Seasons, Holiday, and Functioning Day) into factors.

seoul_bike_data <- seoul_bike_data |>
  mutate(across(c(Seasons,Holiday,'Functioning Day'),factor))

seoul_bike_data

# A tibble: 8,465 × 14
   Date       `Rented Bike Count`  Hour `Temperature(°C)` `Humidity(%)`
   <date>                   <dbl> <dbl>             <dbl>         <dbl>
 1 2017-12-01                 254     0              -5.2            37
 2 2017-12-01                 204     1              -5.5            38
 3 2017-12-01                 173     2              -6              39
 4 2017-12-01                 107     3              -6.2            40
 5 2017-12-01                  78     4              -6              36
 6 2017-12-01                 100     5              -6.4            37
 7 2017-12-01                 181     6              -6.6            35
 8 2017-12-01                 460     7              -7.4            38
 9 2017-12-01                 930     8              -7.6            37
10 2017-12-01                 490     9              -6.5            27
# ℹ 8,455 more rows
# ℹ 9 more variables: `Wind speed (m/s)` <dbl>, `Visibility (10m)` <dbl>,
#   `Dew point temperature(°C)` <dbl>, `Solar Radiation (MJ/m2)` <dbl>,
#   `Rainfall(mm)` <dbl>, `Snowfall (cm)` <dbl>, Seasons <fct>, Holiday <fct>,
#   `Functioning Day` <fct>

Rename all the variables to have easy-to-use names

colnames(seoul_bike_data) <- gsub("\\s*\\([^\\)]+\\)", "", colnames(seoul_bike_data))
colnames(seoul_bike_data) <- str_trim(colnames(seoul_bike_data), "right")
colnames(seoul_bike_data) <- gsub(" ","_",colnames(seoul_bike_data))

seoul_bike_data

# A tibble: 8,465 × 14
   Date       Rented_Bike_Count  Hour Temperature Humidity Wind_speed Visibility
   <date>                 <dbl> <dbl>       <dbl>    <dbl>      <dbl>      <dbl>
 1 2017-12-01               254     0        -5.2       37        2.2       2000
 2 2017-12-01               204     1        -5.5       38        0.8       2000
 3 2017-12-01               173     2        -6         39        1         2000
 4 2017-12-01               107     3        -6.2       40        0.9       2000
 5 2017-12-01                78     4        -6         36        2.3       2000
 6 2017-12-01               100     5        -6.4       37        1.5       2000
 7 2017-12-01               181     6        -6.6       35        1.3       2000
 8 2017-12-01               460     7        -7.4       38        0.9       2000
 9 2017-12-01               930     8        -7.6       37        1.1       2000
10 2017-12-01               490     9        -6.5       27        0.5       1928
# ℹ 8,455 more rows
# ℹ 7 more variables: Dew_point_temperature <dbl>, Solar_Radiation <dbl>,
#   Rainfall <dbl>, Snowfall <dbl>, Seasons <fct>, Holiday <fct>,
#   Functioning_Day <fct>
…
`summarise()` has grouped output by 'Date', 'Seasons'. You can override using
the `.groups` argument.

seoul_bike_data

# A tibble: 353 × 12
   Date       Seasons Holiday  Rented_Bike_Count Temperature Humidity Wind_speed
   <date>     <fct>   <fct>                <dbl>       <dbl>    <dbl>      <dbl>
 1 2017-12-01 Winter  No Holi…              9539     -2.45       45.9      1.54 
 2 2017-12-02 Winter  No Holi…              8523      1.33       62.0      1.71 
 3 2017-12-03 Winter  No Holi…              7222      4.88       81.5      1.61 
 4 2017-12-04 Winter  No Holi…              8729     -0.304      52.5      3.45 
 5 2017-12-05 Winter  No Holi…              8307     -4.46       36.4      1.11 
 6 2017-12-06 Winter  No Holi…              6669      0.0458     70.8      0.696
 7 2017-12-07 Winter  No Holi…              8549      1.09       67.5      1.69 
 8 2017-12-08 Winter  No Holi…              8032     -3.82       41.8      1.85 
 9 2017-12-09 Winter  No Holi…              7233     -0.846      46        1.08 
10 2017-12-10 Winter  No Holi…              3453      1.19       69.7      2.00 
# ℹ 343 more rows
# ℹ 5 more variables: Visibility <dbl>, Dew_point_temperature <dbl>,
#   Solar_Radiation <dbl>, Rainfall <dbl>, Snowfall <dbl>
…
# A tibble: 2 × 4
  .metric .estimator .estimate .config             
  <chr>   <chr>          <dbl> <chr>               
1 rmse    standard    3285.    Preprocessor1_Model1
2 rsq     standard       0.895 Preprocessor1_Model1

Obtain the final model (fit on the entire training set):

final_fit |>
  extract_fit_parsnip() |>
  tidy()

# A tibble: 28 × 5
   term                                estimate std.error statistic  p.value
   <chr>                                  <dbl>     <dbl>     <dbl>    <dbl>
 1 (Intercept)                         22502.       1533.  14.7     4.55e-35
 2 Humidity                            -2138.       1434.  -1.49    1.37e- 1
 3 Seasons_Spring                      -1984.        238.  -8.33    6.67e-15
 4 Seasons_Summer                       8057.        921.   8.75    4.20e-16
 5 Seasons_Winter                      -4114.        994.  -4.14    4.88e- 5
 6 Holiday_No.Holiday                    894.        191.   4.69    4.61e- 6
 7 ww_weekend                          -1098.        169.  -6.50    4.66e-10
 8 Seasons_Spring_x_Holiday_No.Holiday    -2.41      256.  -0.00942 9.92e- 1
 9 Seasons_Summer_x_Holiday_No.Holiday  -126.        239.  -0.529   5.97e- 1
10 Seasons_Winter_x_Holiday_No.Holiday  -314.        188.  -1.67    9.63e- 2
# ℹ 18 more rows
…
Fit the model:

LASSO_grid <- LASSO_wkf |>
  tune_grid(resamples = bike_10_fold,
            grid = grid_regular(penalty(), levels = 200))

Compute the metrics:

LASSO_grid |>
  collect_metrics() |>
  filter(.metric == "rmse")

# A tibble: 200 × 7
    penalty .metric .estimator  mean     n std_err .config               
      <dbl> <chr>   <chr>      <dbl> <int>   <dbl> <chr>                 
 1 1   e-10 rmse    standard   4195.    10    160. Preprocessor1_Model001
 2 1.12e-10 rmse    standard   4195.    10    160. Preprocessor1_Model002
 3 1.26e-10 rmse    standard   4195.    10    160. Preprocessor1_Model003
 4 1.41e-10 rmse    standard   4195.    10    160. Preprocessor1_Model004
 5 1.59e-10 rmse    standard   4195.    10    160. Preprocessor1_Model005
 6 1.78e-10 rmse    standard   4195.    10    160. Preprocessor1_Model006
 7 2.00e-10 rmse    standard   4195.    10    160. Preprocessor1_Model007
 8 2.25e-10 rmse    standard   4195.    10    160. Preprocessor1_Model008
 9 2.52e-10 rmse    standard   4195.    10    160. Preprocessor1_Model009
10 2.83e-10 rmse    standard   4195.    10    160. Preprocessor1_Model010
# ℹ 190 more rows
…
Fit to cross validation (CV) folds:

tree_grid <- grid_regular(cost_complexity(),
                          tree_depth(),
                          levels = c(10, 5))

tree_fits <- tree_wkf |> 
  tune_grid(resamples = bike_10_fold,
            grid = tree_grid)

tree_fits |>
  collect_metrics()

# A tibble: 100 × 8
   cost_complexity tree_depth .metric .estimator     mean     n  std_err .config
             <dbl>      <int> <chr>   <chr>         <dbl> <int>    <dbl> <chr>  
 1    0.0000000001          1 rmse    standard   6613.       10 264.     Prepro…
 2    0.0000000001          1 rsq     standard      0.559    10   0.0279 Prepro…
 3    0.000000001           1 rmse    standard   6613.       10 264.     Prepro…
 4    0.000000001           1 rsq     standard      0.559    10   0.0279 Prepro…
 5    0.00000001            1 rmse    standard   6613.       10 264.     Prepro…
 6    0.00000001            1 rsq     standard      0.559    10   0.0279 Prepro…
 7    0.0000001             1 rmse    standard   6613.       10 264.     Prepro…
 8    0.0000001             1 rsq     standard      0.559    10   0.0279 Prepro…
 9    0.000001              1 rmse    standard   6613.       10 264.     Prepro…
10    0.000001              1 rsq     standard      0.559    10   0.0279 Prepro…
# ℹ 90 more rows
…
Check metric, sort by RMSE:

tree_fits |>
  collect_metrics() |>
  filter(.metric == "rmse") |>
  arrange(mean)

# A tibble: 50 × 8
   cost_complexity tree_depth .metric .estimator  mean     n std_err .config    
             <dbl>      <int> <chr>   <chr>      <dbl> <int>   <dbl> <chr>      
 1    0.0000000001          8 rmse    standard   4128.    10    184. Preprocess…
 2    0.000000001           8 rmse    standard   4128.    10    184. Preprocess…
 3    0.00000001            8 rmse    standard   4128.    10    184. Preprocess…
 4    0.0000001             8 rmse    standard   4128.    10    184. Preprocess…
 5    0.000001              8 rmse    standard   4128.    10    184. Preprocess…
 6    0.00001               8 rmse    standard   4128.    10    184. Preprocess…
 7    0.0001                8 rmse    standard   4128.    10    184. Preprocess…
 8    0.0000000001         11 rmse    standard   4133.    10    186. Preprocess…
 9    0.000000001          11 rmse    standard   4133.    10    186. Preprocess…
10    0.00000001           11 rmse    standard   4133.    10    186. Preprocess…
# ℹ 40 more rows
…
